 
using System.Security.Principal;



String Stname = WindowsIdentity.GetCurrent().Name;


                SqlConnection con = new SqlConnection(cs);
                con.Open();
                SqlCommand com = new SqlCommand("select * from USERS  where UserName= @username", con);
                com.Parameters.Add("@username", SqlDbType.NVarChar).Value = Stname.ToString();
                SqlDataAdapter adpt = new SqlDataAdapter(com);
                DataSet dt = new DataSet();
                adpt.Fill(dt);


                string userrole = dt.Tables[0].Rows[0]["Role"].ToString();

                if (String.Equals(userrole, "Admin", StringComparison.Ordinal) == true)
                {
                    li6.Visible = false;
                    AdminPanelList.Visible = true;
                }

                if (String.Equals(userrole, "Employee", StringComparison.Ordinal) == true)
                {
                    li6.Visible = true;
                    AdminPanelList.Visible = false;
      








          }





//////////////


